hardware/fpga_design/fpga_design.srcs/sources_1/new/thread_tb.vcd
$date
	Sat Mar  1 14:15:09 2025
$end
$version
	Icarus Verilog
$end
$timescale
	1ps
$end
$scope module thread_tb $end
$var wire 11 ! prog_mem_addr [10:0] $end
$var wire 1 " fbram_wr_en $end
$var wire 16 # fbram_wr_data [15:0] $end
$var wire 11 $ bram_read_addr [10:0] $end
$var reg 2 % chunkID [1:0] $end
$var reg 1 & clk $end
$var reg 16 ' fbram_in [15:0] $end
$var reg 24 ( file_data [23:0] $end
$var reg 18 ) instruction [17:0] $end
$var reg 1 * rst $end
$var reg 16 + sbram_in [15:0] $end
$var integer 32 , file [31:0] $end
$var integer 32 - i [31:0] $end
$var integer 32 . status [31:0] $end
$scope module uut $end
$var wire 2 / chunkID [1:0] $end
$var wire 1 & clk $end
$var wire 16 0 fbram_in [15:0] $end
$var wire 18 1 instruction [17:0] $end
$var wire 1 * rst $end
$var wire 16 2 sbram_in [15:0] $end
$var wire 1 3 zero_out $end
$var wire 1 4 ze $end
$var wire 32 5 wdata [31:0] $end
$var wire 4 6 shift_len [3:0] $end
$var wire 4 7 reg_sel_2 [3:0] $end
$var wire 4 8 reg_sel_1 [3:0] $end
$var wire 32 9 rdata_2 [31:0] $end
$var wire 32 : rdata_1 [31:0] $end
$var wire 11 ; program_counter_addr [10:0] $end
$var wire 2 < op_sel [1:0] $end
$var wire 1 = neg_out $end
$var wire 1 > n $end
$var wire 32 ? mul_result [31:0] $end
$var wire 16 @ mem_in [15:0] $end
$var wire 1 A is_jmp $end
$var wire 1 B is_fb $end
$var wire 10 C imm [9:0] $end
$var wire 1 D halt $end
$var wire 1 " fbram_wr_en $end
$var wire 16 E fbram_wr_data [15:0] $end
$var wire 4 F dest_reg [3:0] $end
$var wire 11 G bram_read_addr [10:0] $end
$var wire 3 H alu_sel [2:0] $end
$var wire 32 I alu_result [31:0] $end
$var reg 18 J ins_pipeline [17:0] $end
$var reg 18 K instruction_reg [17:0] $end
$scope module threadALU $end
$var wire 1 L carry_out $end
$var wire 1 & clk $end
$var wire 32 M mul_res [31:0] $end
$var wire 1 > n $end
$var wire 1 4 ze $end
$var wire 32 N shift_res [31:0] $end
$var wire 4 O shift_len [3:0] $end
$var wire 32 P op2 [31:0] $end
$var wire 32 Q op1 [31:0] $end
$var wire 3 R alu_sel [2:0] $end
$var wire 32 S alu_res [31:0] $end
$var reg 1 T carry $end
$var reg 1 U is_neg $end
$var reg 1 V is_zero $end
$var reg 16 W mul_op1 [15:0] $end
$var reg 16 X mul_op2 [15:0] $end
$var reg 32 Y mul_reg [31:0] $end
$var reg 32 Z temp [31:0] $end
$scope module alu_shift $end
$var wire 32 [ stage_2 [31:0] $end
$var wire 32 \ stage_1 [31:0] $end
$var wire 32 ] stage_0 [31:0] $end
$var wire 4 ^ shift_len [3:0] $end
$var wire 32 _ d_out [31:0] $end
$var wire 32 ` d_in [31:0] $end
$upscope $end
$scope begin aluMulBlock $end
$upscope $end
$scope begin aluSelBlock $end
$scope begin addSelectBlock $end
$upscope $end
$scope begin andSelectBlock $end
$upscope $end
$scope begin defaultBlock $end
$upscope $end
$scope begin notSelectBlock $end
$upscope $end
$scope begin orSelectBlock $end
$upscope $end
$scope begin shiftSelectBlock $end
$upscope $end
$scope begin subSelectBlock $end
$upscope $end
$upscope $end
$upscope $end
$scope module threadFlags $end
$var wire 1 & clk $end
$var wire 1 > n_in $end
$var wire 1 * rst $end
$var wire 1 4 z_in $end
$var wire 1 3 z_out $end
$var wire 1 = n_out $end
$var reg 1 = nout $end
$var reg 1 3 zout $end
$scope begin rstFlags $end
$upscope $end
$upscope $end
$scope module threadInsDecode $end
$var wire 1 " fb_wen $end
$var wire 2 a flags [1:0] $end
$var wire 1 D halt $end
$var wire 18 b ins [17:0] $end
$var wire 1 c isNegative $end
$var wire 1 d isUC $end
$var wire 1 e isZero $end
$var wire 1 A is_jmp $end
$var wire 1 f jumpIns $end
$var wire 4 g shift_len [3:0] $end
$var wire 4 h reg_sel_2 [3:0] $end
$var wire 4 i reg_sel_1 [3:0] $end
$var wire 2 j op_sel [1:0] $end
$var wire 1 B is_fb $end
$var wire 10 k imm [9:0] $end
$var wire 4 l dest [3:0] $end
$var wire 3 m alu_sel [2:0] $end
$upscope $end
$scope module threadOpSel $end
$var wire 32 n alu_res [31:0] $end
$var wire 10 o imm [9:0] $end
$var wire 16 p memory_in [15:0] $end
$var wire 32 q mult_res [31:0] $end
$var wire 2 r op_select [1:0] $end
$var wire 32 s wr_data [31:0] $end
$upscope $end
$scope module threadProgCount $end
$var wire 1 & clk $end
$var wire 1 D halt $end
$var wire 10 t imm [9:0] $end
$var wire 1 A is_jmp $end
$var wire 11 u prog_addrs [10:0] $end
$var wire 1 * rst $end
$var reg 11 v counter [10:0] $end
$scope begin mainProgCounter $end
$scope begin haltProgCounter $end
$upscope $end
$scope begin incrProgCounter $end
$upscope $end
$scope begin rstProgramCounter $end
$upscope $end
$upscope $end
$upscope $end
$scope module threadRegisterFile $end
$var wire 2 w chunkID [1:0] $end
$var wire 1 & clk $end
$var wire 1 D halt $end
$var wire 4 x raddr1 [3:0] $end
$var wire 4 y raddr2 [3:0] $end
$var wire 1 * rst $end
$var wire 4 z waddr [3:0] $end
$var wire 32 { wdata [31:0] $end
$var wire 32 | rdata2 [31:0] $end
$var wire 32 } rdata1 [31:0] $end
$scope begin mainRegisterFile $end
$scope begin rstRegisterFile $end
$var integer 32 ~ i [31:0] $end
$upscope $end
$scope begin writeRegisterFile $end
$scope begin writeMetaRegisterFile $end
$upscope $end
$upscope $end
$upscope $end
$upscope $end
$scope begin rstInsPipeline $end
$upscope $end
$upscope $end
$upscope $end
$enddefinitions $end
#0
$dumpvars
b1111 ~
bx }
bx |
bx {
bx z
bx y
bx x
b0 w
b0 v
b0 u
bx t
bx s
bx r
bx q
b0 p
bx o
bx n
bx m
bx l
bx k
bx j
bx i
bx h
bx g
xf
xe
xd
xc
bx b
bx a
bx `
bx _
bx ^
bx ]
bx \
bx [
bx Z
bx Y
bx X
bx W
xV
xU
xT
bx S
bx R
bx Q
bx P
bx O
bx N
bx M
xL
bx K
b0 J
bx I
bx H
bx G
bx F
bx E
xD
bx C
xB
xA
b0 @
bx ?
x>
x=
bx <
b0 ;
bx :
bx 9
bx 8
bx 7
bx 6
bx 5
x4
x3
b0 2
b0 1
b0 0
b0 /
b0 .
b1101 -
b10000000000000000000000000000011 ,
b0 +
1*
b0 )
b111100100000001110 (
b0 '
0&
b0 %
bx $
bx #
x"
b0 !
$end
#5000
14
1V
0>
0U
0"
0A
b0 5
b0 s
b0 {
b0 N
b0 _
b0 [
b0 \
0d
b0 ]
b0 #
b0 E
b0 $
b0 G
0f
b0 <
b0 j
b0 r
0L
0T
b0 I
b0 S
b0 Z
b0 n
0c
0D
b0 :
b0 Q
b0 `
b0 }
b0 9
b0 P
b0 |
b0 H
b0 R
b0 m
b0 6
b0 O
b0 ^
b0 g
b0 C
b0 k
b0 o
b0 t
b0 F
b0 l
b0 z
0B
b0 8
b0 i
b0 x
b0 7
b0 h
b0 y
b0 K
b0 b
b0 J
b111111111111 )
b111111111111 1
1&
#10000
1e
b1 !
b1 ;
b1 u
b1 v
13
b1 a
0=
0&
0*
#15000
b0 X
b0 W
b111111111111 J
1&
#20000
b10 !
b10 ;
b10 u
b10 v
0&
#25000
b1111 6
b1111 O
b1111 ^
b1111 g
b11111111 C
b11111111 k
b11111111 o
b11111111 t
b1111 F
b1111 l
b1111 z
b1111 8
b1111 i
b1111 x
b1111 7
b1111 h
b1111 y
b0 ?
b0 M
b0 Y
b0 q
b111111111111 K
b111111111111 b
b101100000001000000 )
b101100000001000000 1
1&
#30000
b11 !
b11 ;
b11 u
b11 v
0&
#35000
b101100000001000000 J
b101100000000010001 )
b101100000000010001 1
1&
#40000
b100 !
b100 ;
b100 u
b100 v
0&
#45000
b100 5
b100 s
b100 {
0A
0e
1f
b11 <
b11 j
b11 r
b11 H
b11 R
b11 m
b100 6
b100 O
b100 ^
b100 g
b100 C
b100 k
b100 o
b100 t
b0 F
b0 l
b0 z
b0 8
b0 i
b0 x
b100 7
b100 h
b100 y
b101100000001000000 K
b101100000001000000 b
b101100000000010001 J
b100000100000000 )
b100000100000000 1
1&
#50000
b1000000000000000000000000000000 N
b1000000000000000000000000000000 _
b1000000000000000000000000000000 [
b100 \
b100 ]
b100 #
b100 E
b100 :
b100 Q
b100 `
b100 }
b101 !
b101 ;
b101 u
b101 v
0&
#55000
b10 N
b10 _
b10 \
b1 5
b1 s
b1 {
b10 [
b10 ]
b1 6
b1 O
b1 ^
b1 g
b1 C
b1 k
b1 o
b1 t
b1 F
b1 l
b1 z
b1 7
b1 h
b1 y
b100 W
b101100000000010001 K
b101100000000010001 b
b100000100000000 J
b100000000010111110 )
b100000000010111110 1
1&
#60000
b1 $
b1 G
b1 9
b1 P
b1 |
b110 !
b110 ;
b110 u
b110 v
0&
#65000
04
0V
b11 I
b11 S
b11 Z
b11 n
b1 N
b1 _
b1 [
b1 \
b11 5
b11 s
b11 {
b1 ]
1e
b1 #
b1 E
b100 $
b100 G
0f
b0 <
b0 j
b0 r
b1 :
b1 Q
b1 `
b1 }
b100 9
b100 P
b100 |
b1 H
b1 R
b1 m
b0 6
b0 O
b0 ^
b0 g
b10000 C
b10000 k
b10000 o
b10000 t
b0 F
b0 l
b0 z
b1 8
b1 i
b1 x
b0 7
b0 h
b0 y
b1 X
b100000100000000 K
b100000100000000 b
b100000000010111110 J
b111111111111 )
b111111111111 1
1&
#70000
b10 5
b10 s
b10 {
b10 I
b10 S
b10 Z
b10 n
0e
b11 $
b11 G
b11 9
b11 P
b11 |
b111 !
b111 ;
b111 u
b111 v
b0 a
03
0&
#75000
1f
b1100000000000000000000000000000 [
b11 5
b11 s
b11 {
b11000000000000000000000 N
b11000000000000000000000 _
b1100000000000000000000000000000 \
b10000000000000000000000000000001 ]
b11 #
b11 E
b0 $
b0 G
b11 I
b11 S
b11 Z
b11 n
b11 :
b11 Q
b11 `
b11 }
b0 9
b0 P
b0 |
b0 H
b0 R
b0 m
b1011 6
b1011 O
b1011 ^
b1011 g
b1011 C
b1011 k
b1011 o
b1011 t
b1110 F
b1110 l
b1110 z
b0 8
b0 i
b0 x
b1011 7
b1011 h
b1011 y
b100 ?
b100 M
b100 Y
b100 q
b11 X
b1 W
b100000000010111110 K
b100000000010111110 b
b111111111111 J
1&
#80000
b1000 !
b1000 ;
b1000 u
b1000 v
0&
#85000
14
1V
b0 \
b0 N
b0 _
b0 ]
b0 5
b0 s
b0 {
b0 [
b0 I
b0 S
b0 Z
b0 n
b0 #
b0 E
0f
b0 :
b0 Q
b0 `
b0 }
b1111 6
b1111 O
b1111 ^
b1111 g
b11111111 C
b11111111 k
b11111111 o
b11111111 t
b1111 F
b1111 l
b1111 z
b1111 8
b1111 i
b1111 x
b1111 7
b1111 h
b1111 y
b11 ?
b11 M
b11 Y
b11 q
b0 X
b11 W
b111111111111 K
b111111111111 b
b110100000001001111 )
b110100000001001111 1
1&
#90000
1e
b1001 !
b1001 ;
b1001 u
b1001 v
b1 a
13
0&
#95000
b0 ?
b0 M
b0 Y
b0 q
b0 W
b110100000001001111 J
b111111111111 )
b111111111111 1
1&
#100000
b1010 !
b1010 ;
b1010 u
b1010 v
0&
#105000
b110000000000000000000000000000 N
b110000000000000000000000000000 _
b110000000000000000000000000000 [
0e
1A
b11 \
b11 ]
1d
b11 #
b11 E
1f
b1 <
b1 j
b1 r
b11 :
b11 Q
b11 `
b11 }
b101 H
b101 R
b101 m
b100 6
b100 O
b100 ^
b100 g
b100 C
b100 k
b100 o
b100 t
b0 8
b0 i
b0 x
b100 7
b100 h
b100 y
b110100000001001111 K
b110100000001001111 b
b111111111111 J
1&
#110000
b100 !
b100 ;
b100 u
b100 v
0&
#115000
b0 [
1e
0A
b0 N
b0 _
b0 \
0d
b0 ]
b0 #
b0 E
0"
0f
b0 <
b0 j
b0 r
b0 :
b0 Q
b0 `
b0 }
b0 H
b0 R
b0 m
b1111 6
b1111 O
b1111 ^
b1111 g
b11111111 C
b11111111 k
b11111111 o
b11111111 t
b1111 8
b1111 i
b1111 x
b1111 7
b1111 h
b1111 y
b11 W
b111111111111 K
b111111111111 b
b100000100000000 )
b100000100000000 1
1&
#120000
b101 !
b101 ;
b101 u
b101 v
0&
#125000
b0 W
b100000100000000 J
b100000000010111110 )
b100000000010111110 1
1&
#130000
b110 !
b110 ;
b110 u
b110 v
0&
#135000
04
0V
b10 5
b10 s
b10 {
b10 I
b10 S
b10 Z
b10 n
b1 N
b1 _
b1 [
b1 \
b1 ]
b1 #
b1 E
b11 $
b11 G
b1 :
b1 Q
b1 `
b1 }
b11 9
b11 P
b11 |
b1 H
b1 R
b1 m
b0 6
b0 O
b0 ^
b0 g
b10000 C
b10000 k
b10000 o
b10000 t
b0 F
b0 l
b0 z
b1 8
b1 i
b1 x
b0 7
b0 h
b0 y
b100000100000000 K
b100000100000000 b
b100000000010111110 J
b111111111111 )
b111111111111 1
1&
#140000
b1 5
b1 s
b1 {
b1 I
b1 S
b1 Z
b1 n
0e
b10 $
b10 G
b10 9
b10 P
b10 |
b111 !
b111 ;
b111 u
b111 v
b0 a
03
0&
#145000
1f
b1000000000000000000000000000000 [
b10 5
b10 s
b10 {
b10000000000000000000000 N
b10000000000000000000000 _
b1000000000000000000000000000000 \
b10 #
b10 E
b0 $
b0 G
b10 I
b10 S
b10 Z
b10 n
b10 :
b10 Q
b10 `
b10 }
b0 9
b0 P
b0 |
b0 H
b0 R
b0 m
b1011 6
b1011 O
b1011 ^
b1011 g
b1011 C
b1011 k
b1011 o
b1011 t
b1110 F
b1110 l
b1110 z
b0 8
b0 i
b0 x
b1011 7
b1011 h
b1011 y
b10 X
b1 W
b100000000010111110 K
b100000000010111110 b
b111111111111 J
1&
#150000
b1000 !
b1000 ;
b1000 u
b1000 v
0&
#155000
14
1V
b0 \
b0 N
b0 _
b0 ]
b0 5
b0 s
b0 {
b0 [
b0 I
b0 S
b0 Z
b0 n
b0 #
b0 E
0f
b0 :
b0 Q
b0 `
b0 }
b1111 6
b1111 O
b1111 ^
b1111 g
b11111111 C
b11111111 k
b11111111 o
b11111111 t
b1111 F
b1111 l
b1111 z
b1111 8
b1111 i
b1111 x
b1111 7
b1111 h
b1111 y
b10 ?
b10 M
b10 Y
b10 q
b0 X
b10 W
b111111111111 K
b111111111111 b
b110100000001001111 )
b110100000001001111 1
1&
#160000
1e
b1001 !
b1001 ;
b1001 u
b1001 v
b1 a
13
0&
#165000
b0 ?
b0 M
b0 Y
b0 q
b0 W
b110100000001001111 J
b111111111111 )
b111111111111 1
1&
#170000
b1010 !
b1010 ;
b1010 u
b1010 v
0&
#175000
b100000000000000000000000000000 N
b100000000000000000000000000000 _
b100000000000000000000000000000 [
0e
1A
b10 \
b10 ]
1d
b10 #
b10 E
1f
b1 <
b1 j
b1 r
b10 :
b10 Q
b10 `
b10 }
b101 H
b101 R
b101 m
b100 6
b100 O
b100 ^
b100 g
b100 C
b100 k
b100 o
b100 t
b0 8
b0 i
b0 x
b100 7
b100 h
b100 y
b110100000001001111 K
b110100000001001111 b
b111111111111 J
1&
#180000
b100 !
b100 ;
b100 u
b100 v
0&
#185000
b0 [
1e
0A
b0 N
b0 _
b0 \
0d
b0 ]
b0 #
b0 E
0"
0f
b0 <
b0 j
b0 r
b0 :
b0 Q
b0 `
b0 }
b0 H
b0 R
b0 m
b1111 6
b1111 O
b1111 ^
b1111 g
b11111111 C
b11111111 k
b11111111 o
b11111111 t
b1111 8
b1111 i
b1111 x
b1111 7
b1111 h
b1111 y
b10 W
b111111111111 K
b111111111111 b
b100000100000000 )
b100000100000000 1
1&
#190000
b101 !
b101 ;
b101 u
b101 v
0&
#195000
b0 W
b100000100000000 J
b100000000010111110 )
b100000000010111110 1
1&
#200000
b110 !
b110 ;
b110 u
b110 v
0&
#205000
04
0V
b1 5
b1 s
b1 {
b1 I
b1 S
b1 Z
b1 n
b1 N
b1 _
b1 [
b1 \
b1 ]
b1 #
b1 E
b10 $
b10 G
b1 :
b1 Q
b1 `
b1 }
b10 9
b10 P
b10 |
b1 H
b1 R
b1 m
b0 6
b0 O
b0 ^
b0 g
b10000 C
b10000 k
b10000 o
b10000 t
b0 F
b0 l
b0 z
b1 8
b1 i
b1 x
b0 7
b0 h
b0 y
b100000100000000 K
b100000100000000 b
b100000000010111110 J
b111111111111 )
b111111111111 1
1&
#210000
14
1V
b0 5
b0 s
b0 {
b0 I
b0 S
b0 Z
b0 n
0e
b1 $
b1 G
b1 9
b1 P
b1 |
b111 !
b111 ;
b111 u
b111 v
b0 a
03
0&
#215000
1f
04
0V
b100000000000000000000000000000 [
b1 5
b1 s
b1 {
b1000000000000000000000 N
b1000000000000000000000 _
b100000000000000000000000000000 \
b10000000000000000000000000000000 ]
b0 $
b0 G
b1 I
b1 S
b1 Z
b1 n
b0 9
b0 P
b0 |
b0 H
b0 R
b0 m
b1011 6
b1011 O
b1011 ^
b1011 g
b1011 C
b1011 k
b1011 o
b1011 t
b1110 F
b1110 l
b1110 z
b0 8
b0 i
b0 x
b1011 7
b1011 h
b1011 y
b1 X
b1 W
b100000000010111110 K
b100000000010111110 b
b111111111111 J
1&
#220000
b1000 !
b1000 ;
b1000 u
b1000 v
0&
#225000
14
1V
b0 \
b0 N
b0 _
b0 ]
b0 5
b0 s
b0 {
b0 [
b0 I
b0 S
b0 Z
b0 n
b0 #
b0 E
0f
b0 :
b0 Q
b0 `
b0 }
b1111 6
b1111 O
b1111 ^
b1111 g
b11111111 C
b11111111 k
b11111111 o
b11111111 t
b1111 F
b1111 l
b1111 z
b1111 8
b1111 i
b1111 x
b1111 7
b1111 h
b1111 y
b1 ?
b1 M
b1 Y
b1 q
b0 X
b111111111111 K
b111111111111 b
b110100000001001111 )
b110100000001001111 1
1&
#230000
1e
b1001 !
b1001 ;
b1001 u
b1001 v
b1 a
13
0&
#235000
b0 ?
b0 M
b0 Y
b0 q
b0 W
b110100000001001111 J
b111111111111 )
b111111111111 1
1&
#240000
b1010 !
b1010 ;
b1010 u
b1010 v
0&
#245000
b10000000000000000000000000000 N
b10000000000000000000000000000 _
b10000000000000000000000000000 [
0e
1A
b1 \
b1 ]
1d
b1 #
b1 E
1f
b1 <
b1 j
b1 r
b1 :
b1 Q
b1 `
b1 }
b101 H
b101 R
b101 m
b100 6
b100 O
b100 ^
b100 g
b100 C
b100 k
b100 o
b100 t
b0 8
b0 i
b0 x
b100 7
b100 h
b100 y
b110100000001001111 K
b110100000001001111 b
b111111111111 J
1&
#250000
b100 !
b100 ;
b100 u
b100 v
0&
#255000
b0 [
1e
0A
b0 N
b0 _
b0 \
0d
b0 ]
b0 #
b0 E
0"
0f
b0 <
b0 j
b0 r
b0 :
b0 Q
b0 `
b0 }
b0 H
b0 R
b0 m
b1111 6
b1111 O
b1111 ^
b1111 g
b11111111 C
b11111111 k
b11111111 o
b11111111 t
b1111 8
b1111 i
b1111 x
b1111 7
b1111 h
b1111 y
b1 W
b111111111111 K
b111111111111 b
b100000100000000 )
b100000100000000 1
1&
#260000
b101 !
b101 ;
b101 u
b101 v
0&
#265000
b0 W
b100000100000000 J
b100000000010111110 )
b100000000010111110 1
1&
#270000
b110 !
b110 ;
b110 u
b110 v
0&
#275000
b1 N
b1 _
b1 [
b1 \
b1 ]
b1 #
b1 E
b1 $
b1 G
b1 :
b1 Q
b1 `
b1 }
b1 9
b1 P
b1 |
b1 H
b1 R
b1 m
b0 6
b0 O
b0 ^
b0 g
b10000 C
b10000 k
b10000 o
b10000 t
b0 F
b0 l
b0 z
b1 8
b1 i
b1 x
b0 7
b0 h
b0 y
b100000100000000 K
b100000100000000 b
b100000000010111110 J
b111111111111 )
b111111111111 1
1&
#280000
04
0V
1>
1U
b11111111111111111111111111111111 5
b11111111111111111111111111111111 s
b11111111111111111111111111111111 {
1L
1T
b11111111111111111111111111111111 I
b11111111111111111111111111111111 S
b11111111111111111111111111111111 Z
b11111111111111111111111111111111 n
b0 $
b0 G
b0 9
b0 P
b0 |
b111 !
b111 ;
b111 u
b111 v
0&
#285000
1A
1f
14
1V
0>
0U
b0 [
b0 5
b0 s
b0 {
b0 N
b0 _
b0 \
b0 ]
b0 #
b0 E
0L
0T
b0 I
b0 S
b0 Z
b0 n
b0 :
b0 Q
b0 `
b0 }
b0 H
b0 R
b0 m
b1011 6
b1011 O
b1011 ^
b1011 g
b1011 C
b1011 k
b1011 o
b1011 t
b1110 F
b1110 l
b1110 z
b0 8
b0 i
b0 x
b1011 7
b1011 h
b1011 y
b1 W
b100000000010111110 K
b100000000010111110 b
b111111111111 J
1&
#290000
b1011 !
b1011 ;
b1011 u
b1011 v
0&
#295000
0A
0f
b1111 6
b1111 O
b1111 ^
b1111 g
b11111111 C
b11111111 k
b11111111 o
b11111111 t
b1111 F
b1111 l
b1111 z
b1111 8
b1111 i
b1111 x
b1111 7
b1111 h
b1111 y
b0 W
b111111111111 K
b111111111111 b
b111100100000001110 )
b111100100000001110 1
1&
#300000
b1100 !
b1100 ;
b1100 u
b1100 v
0&
#305000
b111100100000001110 J
1&
#310000
b1101 !
b1101 ;
b1101 u
b1101 v
0&
#315000
b10000000 5
b10000000 s
b10000000 {
1D
0A
0e
0f
b11 <
b11 j
b11 r
b11111111111111111111111111111111 I
b11111111111111111111111111111111 S
b11111111111111111111111111111111 Z
b11111111111111111111111111111111 n
b111 H
b111 R
b111 m
b0 6
b0 O
b0 ^
b0 g
b10000000 C
b10000000 k
b10000000 o
b10000000 t
b1110 F
b1110 l
b1110 z
b1000 8
b1000 i
b1000 x
b0 7
b0 h
b0 y
b111100100000001110 K
b111100100000001110 b
bx )
bx 1
1&
#320000
0&
#325000
bx J
1&
#330000
0&
#335000
xA
xf
xe
x"
b0xxxxxxxxxx 5
b0xxxxxxxxxx s
b0xxxxxxxxxx {
bx N
bx _
bx [
bx \
xd
bx ]
bx #
bx E
bx $
bx G
bx <
bx j
bx r
b0 I
b0 S
b0 Z
b0 n
14
1V
0>
0U
xD
bx :
bx Q
bx `
bx }
bx 9
bx P
bx |
bx H
bx R
bx m
bx 6
bx O
bx ^
bx g
bx C
bx k
bx o
bx t
bx F
bx l
bx z
xB
bx 8
bx i
bx x
bx 7
bx h
bx y
bx K
bx b
1&
#340000
b0xxxxxxxxxx !
b0xxxxxxxxxx ;
b0xxxxxxxxxx u
b0xxxxxxxxxx v
0&
#345000
bx X
bx W
1&
#350000
bx !
bx ;
bx u
bx v
0&
#355000
bx 5
bx s
bx {
bx ?
bx M
bx Y
bx q
1&
