hardware/fpga_design/fpga_design.srcs/sources_1/new/thread_tb.vcd
$date
	Sun Mar  2 11:17:16 2025
$end
$version
	Icarus Verilog
$end
$timescale
	1ps
$end
$scope module thread_tb $end
$var wire 11 ! prog_mem_addr [10:0] $end
$var wire 1 " fbram_wr_en $end
$var wire 16 # fbram_wr_data [15:0] $end
$var wire 11 $ bram_read_addr [10:0] $end
$var reg 2 % chunkID [1:0] $end
$var reg 1 & clk $end
$var reg 16 ' fbram_in [15:0] $end
$var reg 24 ( file_data [23:0] $end
$var reg 18 ) instruction [17:0] $end
$var reg 1 * rst $end
$var reg 16 + sbram_in [15:0] $end
$var integer 32 , file [31:0] $end
$var integer 32 - i [31:0] $end
$var integer 32 . idx [31:0] $end
$var integer 32 / status [31:0] $end
$scope module uut $end
$var wire 2 0 chunkID [1:0] $end
$var wire 1 & clk $end
$var wire 16 1 fbram_in [15:0] $end
$var wire 18 2 instruction [17:0] $end
$var wire 1 * rst $end
$var wire 16 3 sbram_in [15:0] $end
$var wire 1 4 zero_out $end
$var wire 1 5 ze $end
$var wire 32 6 wdata [31:0] $end
$var wire 4 7 shift_len [3:0] $end
$var wire 4 8 reg_sel_2 [3:0] $end
$var wire 4 9 reg_sel_1 [3:0] $end
$var wire 32 : rdata_2 [31:0] $end
$var wire 32 ; rdata_1 [31:0] $end
$var wire 11 < program_counter_addr [10:0] $end
$var wire 2 = op_sel [1:0] $end
$var wire 1 > neg_out $end
$var wire 1 ? n $end
$var wire 32 @ mul_result [31:0] $end
$var wire 16 A mem_in [15:0] $end
$var wire 1 B is_jmp $end
$var wire 1 C is_fb $end
$var wire 10 D imm [9:0] $end
$var wire 1 E halt $end
$var wire 1 " fbram_wr_en $end
$var wire 16 F fbram_wr_data [15:0] $end
$var wire 4 G dest_reg [3:0] $end
$var wire 11 H bram_read_addr [10:0] $end
$var wire 3 I alu_sel [2:0] $end
$var wire 32 J alu_result [31:0] $end
$var reg 1 K halt_reg $end
$var reg 18 L ins_pipeline [17:0] $end
$var reg 18 M instruction_reg [17:0] $end
$scope module threadALU $end
$var wire 1 & clk $end
$var wire 32 N mul_res [31:0] $end
$var wire 1 ? n $end
$var wire 1 5 ze $end
$var wire 32 O shift_res [31:0] $end
$var wire 4 P shift_len [3:0] $end
$var wire 32 Q op2 [31:0] $end
$var wire 32 R op1 [31:0] $end
$var wire 3 S alu_sel [2:0] $end
$var wire 32 T alu_res [31:0] $end
$var reg 1 U ceff $end
$var reg 1 V is_neg $end
$var reg 1 W is_zero $end
$var reg 16 X mul_op1 [15:0] $end
$var reg 16 Y mul_op2 [15:0] $end
$var reg 32 Z mul_reg [31:0] $end
$var reg 32 [ temp [31:0] $end
$scope module alu_shift $end
$var wire 32 \ stage_2 [31:0] $end
$var wire 32 ] stage_1 [31:0] $end
$var wire 32 ^ stage_0 [31:0] $end
$var wire 4 _ shift_len [3:0] $end
$var wire 32 ` d_out [31:0] $end
$var wire 32 a d_in [31:0] $end
$upscope $end
$scope begin aluMulBlock $end
$upscope $end
$scope begin aluSelBlock $end
$scope begin addSelectBlock $end
$upscope $end
$scope begin andSelectBlock $end
$upscope $end
$scope begin defaultBlock $end
$upscope $end
$scope begin notSelectBlock $end
$upscope $end
$scope begin orSelectBlock $end
$upscope $end
$scope begin shiftSelectBlock $end
$upscope $end
$scope begin subSelectBlock $end
$upscope $end
$upscope $end
$upscope $end
$scope module threadFlags $end
$var wire 1 & clk $end
$var wire 1 ? n_in $end
$var wire 1 * rst $end
$var wire 1 5 z_in $end
$var wire 1 4 z_out $end
$var wire 1 > n_out $end
$var reg 1 > nout $end
$var reg 1 4 zout $end
$scope begin rstFlags $end
$upscope $end
$upscope $end
$scope module threadInsDecode $end
$var wire 1 " fb_wen $end
$var wire 2 b flags [1:0] $end
$var wire 1 E halt $end
$var wire 18 c ins [17:0] $end
$var wire 1 B is_jmp $end
$var wire 1 d jumpIns $end
$var wire 4 e shift_len [3:0] $end
$var wire 4 f reg_sel_2 [3:0] $end
$var wire 4 g reg_sel_1 [3:0] $end
$var wire 2 h op_sel [1:0] $end
$var wire 1 C is_fb $end
$var wire 10 i imm [9:0] $end
$var wire 4 j dest [3:0] $end
$var wire 3 k alu_sel [2:0] $end
$upscope $end
$scope module threadOpSel $end
$var wire 32 l alu_res [31:0] $end
$var wire 10 m imm [9:0] $end
$var wire 16 n memory_in [15:0] $end
$var wire 32 o mult_res [31:0] $end
$var wire 2 p op_select [1:0] $end
$var wire 32 q wr_data [31:0] $end
$upscope $end
$scope module threadProgCount $end
$var wire 1 & clk $end
$var wire 1 K halt $end
$var wire 10 r imm [9:0] $end
$var wire 1 B is_jmp $end
$var wire 11 s prog_addrs [10:0] $end
$var wire 1 * rst $end
$var reg 11 t counter [10:0] $end
$scope begin mainProgCounter $end
$scope begin haltProgCounter $end
$upscope $end
$scope begin incrProgCounter $end
$upscope $end
$scope begin rstProgramCounter $end
$upscope $end
$upscope $end
$upscope $end
$scope module threadRegisterFile $end
$var wire 2 u chunkID [1:0] $end
$var wire 1 & clk $end
$var wire 4 v raddr1 [3:0] $end
$var wire 4 w raddr2 [3:0] $end
$var wire 1 * rst $end
$var wire 4 x waddr [3:0] $end
$var wire 32 y wdata [31:0] $end
$var wire 32 z rdata2 [31:0] $end
$var wire 32 { rdata1 [31:0] $end
$scope begin mainRegisterFile $end
$scope begin rstRegisterFile $end
$var integer 32 | i [31:0] $end
$upscope $end
$scope begin writeRegisterFile $end
$scope begin writeMetaRegisterFile $end
$upscope $end
$upscope $end
$upscope $end
$upscope $end
$scope begin haltTrigger $end
$scope begin haltRst $end
$upscope $end
$upscope $end
$scope begin rstInsPipeline $end
$upscope $end
$upscope $end
$upscope $end
$scope module thread_tb $end
$scope module uut $end
$scope module threadRegisterFile $end
$var reg 32 } \r[0] [31:0] $end
$upscope $end
$upscope $end
$upscope $end
$scope module thread_tb $end
$scope module uut $end
$scope module threadRegisterFile $end
$var reg 32 ~ \r[1] [31:0] $end
$upscope $end
$upscope $end
$upscope $end
$scope module thread_tb $end
$scope module uut $end
$scope module threadRegisterFile $end
$var reg 32 !" \r[2] [31:0] $end
$upscope $end
$upscope $end
$upscope $end
$scope module thread_tb $end
$scope module uut $end
$scope module threadRegisterFile $end
$var reg 32 "" \r[3] [31:0] $end
$upscope $end
$upscope $end
$upscope $end
$scope module thread_tb $end
$scope module uut $end
$scope module threadRegisterFile $end
$var reg 32 #" \r[4] [31:0] $end
$upscope $end
$upscope $end
$upscope $end
$scope module thread_tb $end
$scope module uut $end
$scope module threadRegisterFile $end
$var reg 32 $" \r[5] [31:0] $end
$upscope $end
$upscope $end
$upscope $end
$scope module thread_tb $end
$scope module uut $end
$scope module threadRegisterFile $end
$var reg 32 %" \r[6] [31:0] $end
$upscope $end
$upscope $end
$upscope $end
$scope module thread_tb $end
$scope module uut $end
$scope module threadRegisterFile $end
$var reg 32 &" \r[7] [31:0] $end
$upscope $end
$upscope $end
$upscope $end
$scope module thread_tb $end
$scope module uut $end
$scope module threadRegisterFile $end
$var reg 32 '" \r[8] [31:0] $end
$upscope $end
$upscope $end
$upscope $end
$scope module thread_tb $end
$scope module uut $end
$scope module threadRegisterFile $end
$var reg 32 (" \r[9] [31:0] $end
$upscope $end
$upscope $end
$upscope $end
$scope module thread_tb $end
$scope module uut $end
$scope module threadRegisterFile $end
$var reg 32 )" \r[10] [31:0] $end
$upscope $end
$upscope $end
$upscope $end
$scope module thread_tb $end
$scope module uut $end
$scope module threadRegisterFile $end
$var reg 32 *" \r[11] [31:0] $end
$upscope $end
$upscope $end
$upscope $end
$scope module thread_tb $end
$scope module uut $end
$scope module threadRegisterFile $end
$var reg 32 +" \r[12] [31:0] $end
$upscope $end
$upscope $end
$upscope $end
$scope module thread_tb $end
$scope module uut $end
$scope module threadRegisterFile $end
$var reg 32 ," \r[13] [31:0] $end
$upscope $end
$upscope $end
$upscope $end
$scope module thread_tb $end
$scope module uut $end
$scope module threadRegisterFile $end
$var reg 32 -" \r[14] [31:0] $end
$upscope $end
$upscope $end
$upscope $end
$enddefinitions $end
#0
$dumpvars
b0 -"
b0 ,"
b0 +"
b0 *"
b0 )"
b0 ("
b0 '"
b0 &"
b0 %"
b0 $"
b0 #"
b0 ""
b0 !"
b0 ~
b0 }
b1111 |
bx {
bx z
bx y
bx x
bx w
bx v
b0 u
b0 t
b0 s
bx r
bx q
bx p
bx o
b0 n
bx m
bx l
bx k
bx j
bx i
bx h
bx g
bx f
bx e
xd
bx c
bx b
bx a
bx `
bx _
bx ^
bx ]
bx \
bx [
bx Z
bx Y
bx X
xW
xV
xU
bx T
bx S
bx R
bx Q
bx P
bx O
bx N
bx M
b0 L
0K
bx J
bx I
bx H
bx G
bx F
xE
bx D
xC
xB
b0 A
bx @
x?
x>
bx =
b0 <
bx ;
bx :
bx 9
bx 8
bx 7
bx 6
x5
x4
b0 3
b0 2
b0 1
b0 0
b11 /
b1111 .
b100000000000 -
b10000000000000000000000000000011 ,
b0 +
1*
b0 )
b1100000101111100110000 (
b0 '
0&
b0 %
bx $
bx #
x"
b0 !
$end
#5000
b0 6
b0 q
b0 y
b0 J
b0 T
b0 [
b0 l
0U
0"
0B
b0 O
b0 `
b0 \
b0 ]
b0 ^
b0 #
b0 F
b0 $
b0 H
0d
b0 =
b0 h
b0 p
0E
b0 ;
b0 R
b0 a
b0 {
b0 :
b0 Q
b0 z
b0 I
b0 S
b0 k
b0 7
b0 P
b0 _
b0 e
b0 D
b0 i
b0 m
b0 r
b0 G
b0 j
b0 x
0C
b0 9
b0 g
b0 v
b0 8
b0 f
b0 w
b0 M
b0 c
b0 L
b110010000100100000 )
b110010000100100000 2
1&
#10000
b1 !
b1 <
b1 s
b1 t
b0 }
0&
0*
#15000
b0 Y
b0 X
b110010000100100000 L
b110111010101110011 )
b110111010101110011 2
1&
#20000
b10 !
b10 <
b10 s
b10 t
b0 }
0&
#25000
15
1W
0?
0V
1"
0B
0d
b100 I
b100 S
b100 k
b10 7
b10 P
b10 _
b10 e
b1000010010 D
b1000010010 i
b1000010010 m
b1000010010 r
1C
b1 9
b1 g
b1 v
b10 8
b10 f
b10 w
b0 @
b0 N
b0 Z
b0 o
b110010000100100000 M
b110010000100100000 c
b110111010101110011 L
b100010111101100010 )
b100010111101100010 2
1&
#30000
b11 !
b11 <
b11 s
b11 t
b0 }
14
b1 b
0>
0&
#35000
1B
1d
0"
b1 =
b1 h
b1 p
b101 I
b101 S
b101 k
b111 7
b111 P
b111 _
b111 e
b1101010111 D
b1101010111 i
b1101010111 m
b1101010111 r
b11 G
b11 j
b11 x
b101 9
b101 g
b101 v
b111 8
b111 f
b111 w
b110111010101110011 M
b110111010101110011 c
b100010111101100010 L
b10110111000101111 )
b10110111000101111 2
1&
#40000
b1101010111 !
b1101010111 <
b1101010111 s
b1101010111 t
b0 ""
0&
#45000
1B
1d
0"
b0 =
b0 h
b0 p
b0 I
b0 S
b0 k
b110 7
b110 P
b110 _
b110 e
b1011110110 D
b1011110110 i
b1011110110 m
b1011110110 r
b10 G
b10 j
b10 x
b1111 9
b1111 g
b1111 v
b110 8
b110 f
b110 w
b100010111101100010 M
b100010111101100010 c
b10110111000101111 L
b110011000000100000 )
b110011000000100000 2
1&
#50000
b1011110110 !
b1011110110 <
b1011110110 s
b1011110110 t
b0 !"
0&
#55000
0B
0d
b101 I
b101 S
b101 k
b10 7
b10 P
b10 _
b10 e
b1011100010 D
b1011100010 i
b1011100010 m
b1011100010 r
b1111 G
b1111 j
b1111 x
b1110 9
b1110 g
b1110 v
b10 8
b10 f
b10 w
b10110111000101111 M
b10110111000101111 c
b110011000000100000 L
b10000000100010 )
b10000000100010 2
1&
#60000
b1011110111 !
b1011110111 <
b1011110111 s
b1011110111 t
0&
#65000
1"
0d
b100 I
b100 S
b100 k
b1100000010 D
b1100000010 i
b1100000010 m
b1100000010 r
b0 G
b0 j
b0 x
b0 9
b0 g
b0 v
b110011000000100000 M
b110011000000100000 c
b10000000100010 L
b100110001001110010 )
b100110001001110010 2
1&
#70000
b1011111000 !
b1011111000 <
b1011111000 s
b1011111000 t
b0 }
0&
#75000
0"
b0 I
b0 S
b0 k
b1000000010 D
b1000000010 i
b1000000010 m
b1000000010 r
b10 G
b10 j
b10 x
b10000000100010 M
b10000000100010 c
b100110001001110010 L
b10110110101011111 )
b10110110101011111 2
1&
#80000
b1011111001 !
b1011111001 <
b1011111001 s
b1011111001 t
b0 !"
0&
#85000
0B
0d
b1 =
b1 h
b1 p
b1 I
b1 S
b1 k
b111 7
b111 P
b111 _
b111 e
b1000100111 D
b1000100111 i
b1000100111 m
b1000100111 r
b10 9
b10 g
b10 v
b111 8
b111 f
b111 w
b100110001001110010 M
b100110001001110010 c
b10110110101011111 L
b10110111000100010 )
b10110111000100010 2
1&
#90000
b1011111010 !
b1011111010 <
b1011111010 s
b1011111010 t
b0 !"
0&
#95000
b0 =
b0 h
b0 p
b101 I
b101 S
b101 k
b101 7
b101 P
b101 _
b101 e
b1011010101 D
b1011010101 i
b1011010101 m
b1011010101 r
b1111 G
b1111 j
b1111 x
b1101 9
b1101 g
b1101 v
b101 8
b101 f
b101 w
b10110110101011111 M
b10110110101011111 c
b10110111000100010 L
b10000000110001 )
b10000000110001 2
1&
#100000
b1011111011 !
b1011111011 <
b1011111011 s
b1011111011 t
0&
#105000
b10 7
b10 P
b10 _
b10 e
b1011100010 D
b1011100010 i
b1011100010 m
b1011100010 r
b10 G
b10 j
b10 x
b1110 9
b1110 g
b1110 v
b10 8
b10 f
b10 w
b10110111000100010 M
b10110111000100010 c
b10000000110001 L
b10010000000110000 )
b10010000000110000 2
1&
#110000
b1011111100 !
b1011111100 <
b1011111100 s
b1011111100 t
b0 !"
0&
#115000
b0 I
b0 S
b0 k
b11 7
b11 P
b11 _
b11 e
b1000000011 D
b1000000011 i
b1000000011 m
b1000000011 r
b1 G
b1 j
b1 x
b0 9
b0 g
b0 v
b11 8
b11 f
b11 w
b10000000110001 M
b10000000110001 c
b10010000000110000 L
b10000001110110 )
b10000001110110 2
1&
#120000
b1011111101 !
b1011111101 <
b1011111101 s
b1011111101 t
b0 ~
0&
#125000
b100 I
b100 S
b100 k
b0 G
b0 j
b0 x
b10010000000110000 M
b10010000000110000 c
b10000001110110 L
b111100000110101 )
b111100000110101 2
1&
#130000
b1011111110 !
b1011111110 <
b1011111110 s
b1011111110 t
b0 }
0&
#135000
b0 I
b0 S
b0 k
b111 7
b111 P
b111 _
b111 e
b1000000111 D
b1000000111 i
b1000000111 m
b1000000111 r
b110 G
b110 j
b110 x
b111 8
b111 f
b111 w
b10000001110110 M
b10000001110110 c
b111100000110101 L
b110110001101100010 )
b110110001101100010 2
1&
#140000
b1011111111 !
b1011111111 <
b1011111111 s
b1011111111 t
b0 %"
0&
#145000
b1 I
b1 S
b1 k
b11 7
b11 P
b11 _
b11 e
b1110000011 D
b1110000011 i
b1110000011 m
b1110000011 r
b101 G
b101 j
b101 x
b1000 9
b1000 g
b1000 v
b11 8
b11 f
b11 w
b111100000110101 M
b111100000110101 c
b110110001101100010 L
b11001000110101 )
b11001000110101 2
1&
#150000
b1100000000 !
b1100000000 <
b1100000000 s
b1100000000 t
b0 $"
0&
#155000
1B
1d
b1 =
b1 h
b1 p
b101 I
b101 S
b101 k
b110 7
b110 P
b110 _
b110 e
b1000110110 D
b1000110110 i
b1000110110 m
b1000110110 r
b10 G
b10 j
b10 x
b11 9
b11 g
b11 v
b110 8
b110 f
b110 w
b110110001101100010 M
b110110001101100010 c
b11001000110101 L
b110000100110101 )
b110000100110101 2
1&
#160000
b1000110110 !
b1000110110 <
b1000110110 s
b1000110110 t
b0 !"
0&
#165000
0B
0"
0d
b0 =
b0 h
b0 p
b0 I
b0 S
b0 k
b11 7
b11 P
b11 _
b11 e
b1100100011 D
b1100100011 i
b1100100011 m
b1100100011 r
b101 G
b101 j
b101 x
b10 9
b10 g
b10 v
b11 8
b11 f
b11 w
b11001000110101 M
b11001000110101 c
b110000100110101 L
b110100111101010101 )
b110100111101010101 2
1&
#170000
b1000110111 !
b1000110111 <
b1000110111 s
b1000110111 t
b0 $"
0&
#175000
b1 I
b1 S
b1 k
b1000010011 D
b1000010011 i
b1000010011 m
b1000010011 r
b1 9
b1 g
b1 v
b110000100110101 M
b110000100110101 c
b110100111101010101 L
b101000001010101 )
b101000001010101 2
1&
#180000
b1000111000 !
b1000111000 <
b1000111000 s
b1000111000 t
b0 $"
0&
#185000
1B
1d
b1 =
b1 h
b1 p
b101 I
b101 S
b101 k
b101 7
b101 P
b101 _
b101 e
b11110101 D
b11110101 i
b11110101 m
b11110101 r
0C
b1111 9
b1111 g
b1111 v
b101 8
b101 f
b101 w
b110100111101010101 M
b110100111101010101 c
b101000001010101 L
b10000000110001 )
b10000000110001 2
1&
#190000
b11110101 !
b11110101 <
b11110101 s
b11110101 t
b0 $"
0&
#195000
0B
0d
b0 =
b0 h
b0 p
b1 I
b1 S
b1 k
b100000101 D
b100000101 i
b100000101 m
b100000101 r
b0 9
b0 g
b0 v
b101000001010101 M
b101000001010101 c
b10000000110001 L
b111001001101001 )
b111001001101001 2
1&
#200000
b11110110 !
b11110110 <
b11110110 s
b11110110 t
b0 $"
0&
#205000
b0 I
b0 S
b0 k
b11 7
b11 P
b11 _
b11 e
b1000000011 D
b1000000011 i
b1000000011 m
b1000000011 r
b1 G
b1 j
b1 x
1C
b11 8
b11 f
b11 w
b10000000110001 M
b10000000110001 c
b111001001101001 L
b100110010101110010 )
b100110010101110010 2
1&
#210000
b11110111 !
b11110111 <
b11110111 s
b11110111 t
b0 ~
0&
#215000
b1 I
b1 S
b1 k
b110 7
b110 P
b110 _
b110 e
b1100100110 D
b1100100110 i
b1100100110 m
b1100100110 r
b1001 G
b1001 j
b1001 x
b10 9
b10 g
b10 v
b110 8
b110 f
b110 w
b111001001101001 M
b111001001101001 c
b100110010101110010 L
b110000101001110110 )
b110000101001110110 2
1&
#220000
b11111000 !
b11111000 <
b11111000 s
b11111000 t
b0 ("
0&
#225000
b1 =
b1 h
b1 p
b111 7
b111 P
b111 _
b111 e
b1001010111 D
b1001010111 i
b1001010111 m
b1001010111 r
b10 G
b10 j
b10 x
b101 9
b101 g
b101 v
b111 8
b111 f
b111 w
b100110010101110010 M
b100110010101110010 c
b110000101001110110 L
b111100000110101 )
b111100000110101 2
1&
#230000
b11111001 !
b11111001 <
b11111001 s
b11111001 t
b0 !"
0&
#235000
0B
0d
1"
b0 =
b0 h
b0 p
b100 I
b100 S
b100 k
b10100111 D
b10100111 i
b10100111 m
b10100111 r
b110 G
b110 j
b110 x
0C
b1010 9
b1010 g
b1010 v
b110000101001110110 M
b110000101001110110 c
b111100000110101 L
b110110001101100010 )
b110110001101100010 2
1&
#240000
b11111010 !
b11111010 <
b11111010 s
b11111010 t
b0 %"
0&
#245000
0"
b1 I
b1 S
b1 k
b11 7
b11 P
b11 _
b11 e
b1110000011 D
b1110000011 i
b1110000011 m
b1110000011 r
b101 G
b101 j
b101 x
1C
b1000 9
b1000 g
b1000 v
b11 8
b11 f
b11 w
b111100000110101 M
b111100000110101 c
b110110001101100010 L
b11001000110101 )
b11001000110101 2
1&
#250000
b11111011 !
b11111011 <
b11111011 s
b11111011 t
b0 $"
0&
#255000
1B
1d
b1 =
b1 h
b1 p
b101 I
b101 S
b101 k
b110 7
b110 P
b110 _
b110 e
b1000110110 D
b1000110110 i
b1000110110 m
b1000110110 r
b10 G
b10 j
b10 x
b11 9
b11 g
b11 v
b110 8
b110 f
b110 w
b110110001101100010 M
b110110001101100010 c
b11001000110101 L
b110000100110110 )
b110000100110110 2
1&
#260000
b1000110110 !
b1000110110 <
b1000110110 s
b1000110110 t
b0 !"
0&
#265000
0B
0"
0d
b0 =
b0 h
b0 p
b0 I
b0 S
b0 k
b11 7
b11 P
b11 _
b11 e
b1100100011 D
b1100100011 i
b1100100011 m
b1100100011 r
b101 G
b101 j
b101 x
b10 9
b10 g
b10 v
b11 8
b11 f
b11 w
b11001000110101 M
b11001000110101 c
b110000100110110 L
b110100111101010101 )
b110100111101010101 2
1&
#270000
b1000110111 !
b1000110111 <
b1000110111 s
b1000110111 t
b0 $"
0&
#275000
b1 I
b1 S
b1 k
b1000010011 D
b1000010011 i
b1000010011 m
b1000010011 r
b110 G
b110 j
b110 x
b1 9
b1 g
b1 v
b110000100110110 M
b110000100110110 c
b110100111101010101 L
b101000001010101 )
b101000001010101 2
1&
#280000
b1000111000 !
b1000111000 <
b1000111000 s
b1000111000 t
b0 %"
0&
#285000
1B
1d
b1 =
b1 h
b1 p
b101 I
b101 S
b101 k
b101 7
b101 P
b101 _
b101 e
b11110101 D
b11110101 i
b11110101 m
b11110101 r
b101 G
b101 j
b101 x
0C
b1111 9
b1111 g
b1111 v
b101 8
b101 f
b101 w
b110100111101010101 M
b110100111101010101 c
b101000001010101 L
b10000000110001 )
b10000000110001 2
1&
#290000
b11110101 !
b11110101 <
b11110101 s
b11110101 t
b0 $"
0&
#295000
0B
0d
b0 =
b0 h
b0 p
b1 I
b1 S
b1 k
b100000101 D
b100000101 i
b100000101 m
b100000101 r
b0 9
b0 g
b0 v
b101000001010101 M
b101000001010101 c
b10000000110001 L
b111001001101001 )
b111001001101001 2
1&
#300000
b11110110 !
b11110110 <
b11110110 s
b11110110 t
b0 $"
0&
#305000
b0 I
b0 S
b0 k
b11 7
b11 P
b11 _
b11 e
b1000000011 D
b1000000011 i
b1000000011 m
b1000000011 r
b1 G
b1 j
b1 x
1C
b11 8
b11 f
b11 w
b10000000110001 M
b10000000110001 c
b111001001101001 L
b100110010101110010 )
b100110010101110010 2
1&
#310000
b11110111 !
b11110111 <
b11110111 s
b11110111 t
b0 ~
0&
#315000
b1 I
b1 S
b1 k
b110 7
b110 P
b110 _
b110 e
b1100100110 D
b1100100110 i
b1100100110 m
b1100100110 r
b1001 G
b1001 j
b1001 x
b10 9
b10 g
b10 v
b110 8
b110 f
b110 w
b111001001101001 M
b111001001101001 c
b100110010101110010 L
b110000101001110110 )
b110000101001110110 2
1&
#320000
b11111000 !
b11111000 <
b11111000 s
b11111000 t
b0 ("
0&
#325000
b1 =
b1 h
b1 p
b111 7
b111 P
b111 _
b111 e
b1001010111 D
b1001010111 i
b1001010111 m
b1001010111 r
b10 G
b10 j
b10 x
b101 9
b101 g
b101 v
b111 8
b111 f
b111 w
b100110010101110010 M
b100110010101110010 c
b110000101001110110 L
b111100000110101 )
b111100000110101 2
1&
#330000
b11111001 !
b11111001 <
b11111001 s
b11111001 t
b0 !"
0&
#335000
0B
0d
1"
b0 =
b0 h
b0 p
b100 I
b100 S
b100 k
b10100111 D
b10100111 i
b10100111 m
b10100111 r
b110 G
b110 j
b110 x
0C
b1010 9
b1010 g
b1010 v
b110000101001110110 M
b110000101001110110 c
b111100000110101 L
b110110001101100010 )
b110110001101100010 2
1&
#340000
b11111010 !
b11111010 <
b11111010 s
b11111010 t
b0 %"
0&
#345000
0"
b1 I
b1 S
b1 k
b11 7
b11 P
b11 _
b11 e
b1110000011 D
b1110000011 i
b1110000011 m
b1110000011 r
b101 G
b101 j
b101 x
1C
b1000 9
b1000 g
b1000 v
b11 8
b11 f
b11 w
b111100000110101 M
b111100000110101 c
b110110001101100010 L
b11001000110101 )
b11001000110101 2
1&
#350000
b11111011 !
b11111011 <
b11111011 s
b11111011 t
b0 $"
0&
#355000
1B
1d
b1 =
b1 h
b1 p
b101 I
b101 S
b101 k
b110 7
b110 P
b110 _
b110 e
b1000110110 D
b1000110110 i
b1000110110 m
b1000110110 r
b10 G
b10 j
b10 x
b11 9
b11 g
b11 v
b110 8
b110 f
b110 w
b110110001101100010 M
b110110001101100010 c
b11001000110101 L
b110000100110110 )
b110000100110110 2
1&
#360000
b1000110110 !
b1000110110 <
b1000110110 s
b1000110110 t
b0 !"
0&
#365000
0B
0"
0d
b0 =
b0 h
b0 p
b0 I
b0 S
b0 k
b11 7
b11 P
b11 _
b11 e
b1100100011 D
b1100100011 i
b1100100011 m
b1100100011 r
b101 G
b101 j
b101 x
b10 9
b10 g
b10 v
b11 8
b11 f
b11 w
b11001000110101 M
b11001000110101 c
b110000100110110 L
b110100111101010101 )
b110100111101010101 2
1&
#370000
b1000110111 !
b1000110111 <
b1000110111 s
b1000110111 t
b0 $"
0&
#375000
b1 I
b1 S
b1 k
b1000010011 D
b1000010011 i
b1000010011 m
b1000010011 r
b110 G
b110 j
b110 x
b1 9
b1 g
b1 v
b110000100110110 M
b110000100110110 c
b110100111101010101 L
b101000001010101 )
b101000001010101 2
1&
#380000
b1000111000 !
b1000111000 <
b1000111000 s
b1000111000 t
b0 %"
0&
#385000
1B
1d
b1 =
b1 h
b1 p
b101 I
b101 S
b101 k
b101 7
b101 P
b101 _
b101 e
b11110101 D
b11110101 i
b11110101 m
b11110101 r
b101 G
b101 j
b101 x
0C
b1111 9
b1111 g
b1111 v
b101 8
b101 f
b101 w
b110100111101010101 M
b110100111101010101 c
b101000001010101 L
b10000000110001 )
b10000000110001 2
1&
#390000
b11110101 !
b11110101 <
b11110101 s
b11110101 t
b0 $"
0&
#395000
0B
0d
b0 =
b0 h
b0 p
b1 I
b1 S
b1 k
b100000101 D
b100000101 i
b100000101 m
b100000101 r
b0 9
b0 g
b0 v
b101000001010101 M
b101000001010101 c
b10000000110001 L
b111001001101001 )
b111001001101001 2
1&
#400000
b11110110 !
b11110110 <
b11110110 s
b11110110 t
b0 $"
0&
#405000
b0 I
b0 S
b0 k
b11 7
b11 P
b11 _
b11 e
b1000000011 D
b1000000011 i
b1000000011 m
b1000000011 r
b1 G
b1 j
b1 x
1C
b11 8
b11 f
b11 w
b10000000110001 M
b10000000110001 c
b111001001101001 L
b100110010101110010 )
b100110010101110010 2
1&
#410000
b11110111 !
b11110111 <
b11110111 s
b11110111 t
b0 ~
0&
#415000
b1 I
b1 S
b1 k
b110 7
b110 P
b110 _
b110 e
b1100100110 D
b1100100110 i
b1100100110 m
b1100100110 r
b1001 G
b1001 j
b1001 x
b10 9
b10 g
b10 v
b110 8
b110 f
b110 w
b111001001101001 M
b111001001101001 c
b100110010101110010 L
b110000101001110110 )
b110000101001110110 2
1&
#420000
b11111000 !
b11111000 <
b11111000 s
b11111000 t
b0 ("
0&
#425000
b1 =
b1 h
b1 p
b111 7
b111 P
b111 _
b111 e
b1001010111 D
b1001010111 i
b1001010111 m
b1001010111 r
b10 G
b10 j
b10 x
b101 9
b101 g
b101 v
b111 8
b111 f
b111 w
b100110010101110010 M
b100110010101110010 c
b110000101001110110 L
b111100000110101 )
b111100000110101 2
1&
#430000
b11111001 !
b11111001 <
b11111001 s
b11111001 t
b0 !"
0&
#435000
0B
0d
1"
b0 =
b0 h
b0 p
b100 I
b100 S
b100 k
b10100111 D
b10100111 i
b10100111 m
b10100111 r
b110 G
b110 j
b110 x
0C
b1010 9
b1010 g
b1010 v
b110000101001110110 M
b110000101001110110 c
b111100000110101 L
b110110001101100010 )
b110110001101100010 2
1&
#440000
b11111010 !
b11111010 <
b11111010 s
b11111010 t
b0 %"
0&
#445000
0"
b1 I
b1 S
b1 k
b11 7
b11 P
b11 _
b11 e
b1110000011 D
b1110000011 i
b1110000011 m
b1110000011 r
b101 G
b101 j
b101 x
1C
b1000 9
b1000 g
b1000 v
b11 8
b11 f
b11 w
b111100000110101 M
b111100000110101 c
b110110001101100010 L
b11001000110101 )
b11001000110101 2
1&
#450000
b11111011 !
b11111011 <
b11111011 s
b11111011 t
b0 $"
0&
#455000
1B
1d
b1 =
b1 h
b1 p
b101 I
b101 S
b101 k
b110 7
b110 P
b110 _
b110 e
b1000110110 D
b1000110110 i
b1000110110 m
b1000110110 r
b10 G
b10 j
b10 x
b11 9
b11 g
b11 v
b110 8
b110 f
b110 w
b110110001101100010 M
b110110001101100010 c
b11001000110101 L
b110000100110110 )
b110000100110110 2
1&
#460000
b1000110110 !
b1000110110 <
b1000110110 s
b1000110110 t
b0 !"
0&
#465000
0B
0"
0d
b0 =
b0 h
b0 p
b0 I
b0 S
b0 k
b11 7
b11 P
b11 _
b11 e
b1100100011 D
b1100100011 i
b1100100011 m
b1100100011 r
b101 G
b101 j
b101 x
b10 9
b10 g
b10 v
b11 8
b11 f
b11 w
b11001000110101 M
b11001000110101 c
b110000100110110 L
b110100111101010101 )
b110100111101010101 2
1&
#470000
b1000110111 !
b1000110111 <
b1000110111 s
b1000110111 t
b0 $"
0&
#475000
b1 I
b1 S
b1 k
b1000010011 D
b1000010011 i
b1000010011 m
b1000010011 r
b110 G
b110 j
b110 x
b1 9
b1 g
b1 v
b110000100110110 M
b110000100110110 c
b110100111101010101 L
b101000001010101 )
b101000001010101 2
1&
#480000
b1000111000 !
b1000111000 <
b1000111000 s
b1000111000 t
b0 %"
0&
#485000
1B
1d
b1 =
b1 h
b1 p
b101 I
b101 S
b101 k
b101 7
b101 P
b101 _
b101 e
b11110101 D
b11110101 i
b11110101 m
b11110101 r
b101 G
b101 j
b101 x
0C
b1111 9
b1111 g
b1111 v
b101 8
b101 f
b101 w
b110100111101010101 M
b110100111101010101 c
b101000001010101 L
b10000000110001 )
b10000000110001 2
1&
#490000
b11110101 !
b11110101 <
b11110101 s
b11110101 t
b0 $"
0&
#495000
0B
0d
b0 =
b0 h
b0 p
b1 I
b1 S
b1 k
b100000101 D
b100000101 i
b100000101 m
b100000101 r
b0 9
b0 g
b0 v
b101000001010101 M
b101000001010101 c
b10000000110001 L
b111001001101001 )
b111001001101001 2
1&
#500000
b11110110 !
b11110110 <
b11110110 s
b11110110 t
b0 $"
0&
